Introduction to data
…
nycflights %>%
  group_by(origin) %>%
  mutate(ot_dep_rate = sum(dep_type == 'on time')/length(dep_type)) %>%
  arrange(desc(ot_dep_rate))

## # A tibble: 32,735 x 18
## # Groups:   origin [3]
##     year month   day dep_time dep_delay arr_time arr_delay carrier tailnum
##    <int> <int> <int>    <int>     <dbl>    <int>     <dbl> <chr>   <chr>  
##  1  2013     7    21     1102        -3     1230        -8 9E      N823AY 
##  2  2013     1     1     1817        -3     2008         3 AA      N3AXAA 
##  3  2013     9    26      725       -10     1027        -8 AA      N3FSAA 
##  4  2013    11    22     1320         5     1628        -2 B6      N526JB 
##  5  2013     3    25     2054       115     2256        91 FL      N919AT 
##  6  2013    11     5     1126        11     1257         5 EV      N600QX 
##  7  2013     1    15     1626        -3     1941        10 B6      N594JB 
##  8  2013     1    17      626        -4      846         3 US      N554UW 
##  9  2013     8    16     1251        -4     1433        -7 MQ      N720MQ 
## 10  2013    10     8      821        -8     1007       -22 MQ      N528MQ 
## #  with 32,725 more rows, and 9 more variables: flight <int>, origin <chr>,
## #   dest <chr>, air_time <dbl>, distance <dbl>, hour <dbl>, minute <dbl>,
## #   dep_type <chr>, ot_dep_rate <dbl>
…
N755US

N779JB

N947UW

N959UW

# type your code for Question 8 here, and Knit
nycflights %>%
  group_by(tailnum) %>%
  mutate(avg_speed = distance / air_time) %>%
  arrange(desc(avg_speed))

## # A tibble: 32,735 x 18
## # Groups:   tailnum [3,490]
##     year month   day dep_time dep_delay arr_time arr_delay carrier tailnum
##    <int> <int> <int>    <int>     <dbl>    <int>     <dbl> <chr>   <chr>  
##  1  2013     5    25     1709         9     1923       -14 DL      N666DN 
##  2  2013     2    21     2355        -3      412       -26 B6      N779JB 
##  3  2013    11    16     2349       -10      402       -38 B6      N571JB 
##  4  2013     2    22      831         4     1258       -18 B6      N568JB 
##  5  2013    12     5     1628        -2     2045       -45 AA      N5EHAA 
##  6  2013     3     9     2214        79      229        43 B6      N656JB 
##  7  2013     2    21     2228        -2      318         6 B6      N789JB 
##  8  2013     3    11     1344        19     1657       -12 B6      N516JB 
##  9  2013    11    17      944        -3     1408       -22 B6      N648JB 
## 10  2013    11    15      945        -2     1407       -23 B6      N510JB 
## #  with 32,725 more rows, and 9 more variables: flight <int>, origin <chr>,
## #   dest <chr>, air_time <dbl>, distance <dbl>, hour <dbl>, minute <dbl>,
## #   dep_type <chr>, avg_speed <dbl>
…
The relationship is linear.

There is an overall postive association between distance and average speed.

There are no outliers.

The distribution of distances are uniform over 0 to 5000 miles.

# type your code for Question 9 here, and Knit
nycflights %>%
  group_by(tailnum) %>%
  mutate(avg_speed = distance / air_time) %>%
  arrange(desc(avg_speed))

## # A tibble: 32,735 x 18
## # Groups:   tailnum [3,490]
##     year month   day dep_time dep_delay arr_time arr_delay carrier tailnum
##    <int> <int> <int>    <int>     <dbl>    <int>     <dbl> <chr>   <chr>  
##  1  2013     5    25     1709         9     1923       -14 DL      N666DN 
##  2  2013     2    21     2355        -3      412       -26 B6      N779JB 
##  3  2013    11    16     2349       -10      402       -38 B6      N571JB 
##  4  2013     2    22      831         4     1258       -18 B6      N568JB 
##  5  2013    12     5     1628        -2     2045       -45 AA      N5EHAA 
##  6  2013     3     9     2214        79      229        43 B6      N656JB 
##  7  2013     2    21     2228        -2      318         6 B6      N789JB 
##  8  2013     3    11     1344        19     1657       -12 B6      N516JB 
##  9  2013    11    17      944        -3     1408       -22 B6      N648JB 
## 10  2013    11    15      945        -2     1407       -23 B6      N510JB 
## #  with 32,725 more rows, and 9 more variables: flight <int>, origin <chr>,
## #   dest <chr>, air_time <dbl>, distance <dbl>, hour <dbl>, minute <dbl>,
## #   dep_type <chr>, avg_speed <dbl>
…
